// Jest Snapshot v1, https://goo.gl/fbAQLP

exports[`BookCard renders correctly 1`] = `
<div
  className="book-card"
>
  <div
    className="book-card-text"
  >
    <h4 />
    <p>
      Book by 
    </p>
    <div
      className="book-card-text-detail"
    >
      <div
        className="book-card-text-detail-left"
      >
        <p
          className="book-card-text-detail-head"
        >
          ISBN
        </p>
        <p
          className="book-card-text-detail-content"
        />
        <p
          className="book-card-text-detail-head"
        >
          published on
        </p>
        <p
          className="book-card-text-detail-content"
        />
      </div>
      <div
        className="book-card-text-detail-right"
      >
        <p
          className="book-card-text-detail-head"
        >
          Number of Pages
        </p>
        <p
          className="book-card-text-detail-content"
        />
        <p
          className="book-card-text-detail-head"
        >
          Country Publisher
        </p>
        <p
          className="book-card-text-detail-content"
        />
      </div>
    </div>
  </div>
  <div
    className="book-card-poster"
  >
    <img
      alt="movie"
      className="book-card-poster-img"
      src="img.svg"
    />
  </div>
</div>
`;
